…
您可能对回归中每个原始点的拟合值和残差感兴趣，而不是查看系数。为此，请使用augment函数，它会使用来自模型的信息来扩充原始数据：

```r
augment(lmfit)
```

```
## # A tibble: 32 x 9
##    .rownames          mpg    wt .fitted .resid   .hat .sigma  .cooksd .std.resid
##    <chr>            <dbl> <dbl>   <dbl>  <dbl>  <dbl>  <dbl>    <dbl>      <dbl>
##  1 Mazda RX4         21    2.62    23.3 -2.28  0.0433   3.07  1.33e-2    -0.766 
##  2 Mazda RX4 Wag     21    2.88    21.9 -0.920 0.0352   3.09  1.72e-3    -0.307 
##  3 Datsun 710        22.8  2.32    24.9 -2.09  0.0584   3.07  1.54e-2    -0.706 
##  4 Hornet 4 Drive    21.4  3.22    20.1  1.30  0.0313   3.09  3.02e-3     0.433 
##  5 Hornet Sportabo…  18.7  3.44    18.9 -0.200 0.0329   3.10  7.60e-5    -0.0668
##  6 Valiant           18.1  3.46    18.8 -0.693 0.0332   3.10  9.21e-4    -0.231 
##  7 Duster 360        14.3  3.57    18.2 -3.91  0.0354   3.01  3.13e-2    -1.31  
##  8 Merc 240D         24.4  3.19    20.2  4.16  0.0313   3.00  3.11e-2     1.39  
##  9 Merc 230          22.8  3.15    20.5  2.35  0.0314   3.07  9.96e-3     0.784 
## 10 Merc 280          19.2  3.44    18.9  0.300 0.0329   3.10  1.71e-4     0.100 
## # … with 22 more rows
```
…
```
## # A tibble: 2 x 5
##   term        estimate std.error statistic p.value
##   <chr>          <dbl>     <dbl>     <dbl>   <dbl>
## 1 (Intercept)    12.0       4.51      2.67 0.00759
## 2 wt             -4.02      1.44     -2.80 0.00509
```

```r
augment(glmfit)
```

```
## # A tibble: 32 x 9
##    .rownames            am    wt .fitted .resid .std.resid   .hat .sigma .cooksd
##    <chr>             <dbl> <dbl>   <dbl>  <dbl>      <dbl>  <dbl>  <dbl>   <dbl>
##  1 Mazda RX4             1  2.62   1.50   0.635      0.680 0.126   0.803 0.0184 
##  2 Mazda RX4 Wag         1  2.88   0.471  0.985      1.04  0.108   0.790 0.0424 
##  3 Datsun 710            1  2.32   2.70   0.360      0.379 0.0963  0.810 0.00394
##  4 Hornet 4 Drive        0  3.22  -0.897 -0.827     -0.860 0.0744  0.797 0.0177 
##  5 Hornet Sportabout     0  3.44  -1.80  -0.553     -0.572 0.0681  0.806 0.00647
##  6 Valiant               0  3.46  -1.88  -0.532     -0.551 0.0674  0.807 0.00590
##  7 Duster 360            0  3.57  -2.33  -0.432     -0.446 0.0625  0.809 0.00348
##  8 Merc 240D             0  3.19  -0.796 -0.863     -0.897 0.0755  0.796 0.0199 
##  9 Merc 230              0  3.15  -0.635 -0.922     -0.960 0.0776  0.793 0.0242 
## 10 Merc 280              0  3.44  -1.80  -0.553     -0.572 0.0681  0.806 0.00647
## # … with 22 more rows
```
…
```
## # A tibble: 2 x 5
##   term  estimate std.error statistic  p.value
##   <chr>    <dbl>     <dbl>     <dbl>    <dbl>
## 1 k        45.8       4.25     10.8  7.64e-12
## 2 b         4.39      1.54      2.85 7.74e- 3
```

```r
augment(nlsfit, mtcars)
```

```
## # A tibble: 32 x 14
##    .rownames     mpg   cyl  disp    hp  drat    wt  qsec    vs    am  gear  carb
##    <chr>       <dbl> <dbl> <dbl> <dbl> <dbl> <dbl> <dbl> <dbl> <dbl> <dbl> <dbl>
##  1 Mazda RX4    21       6  160    110  3.9   2.62  16.5     0     1     4     4
##  2 Mazda RX4 …  21       6  160    110  3.9   2.88  17.0     0     1     4     4
##  3 Datsun 710   22.8     4  108     93  3.85  2.32  18.6     1     1     4     1
##  4 Hornet 4 D…  21.4     6  258    110  3.08  3.22  19.4     1     0     3     1
##  5 Hornet Spo…  18.7     8  360    175  3.15  3.44  17.0     0     0     3     2
##  6 Valiant      18.1     6  225    105  2.76  3.46  20.2     1     0     3     1
##  7 Duster 360   14.3     8  360    245  3.21  3.57  15.8     0     0     3     4
##  8 Merc 240D    24.4     4  147.    62  3.69  3.19  20       1     0     4     2
##  9 Merc 230     22.8     4  141.    95  3.92  3.15  22.9     1     0     4     2
## 10 Merc 280     19.2     6  168.   123  3.92  3.44  18.3     1     0     4     4
## # … with 22 more rows, and 2 more variables: .fitted <dbl>, .resid <dbl>
```
…
