…
We can get a sense of why ballots were rejected by finding the top one non-accepting reason for each county in Georgia. 


```r
Top_reason_for_each_county <- CRS2020 %>% group_by(County,Status_Reason) %>% summarise(Total_Number=n()) %>% top_n(1,Total_Number) 
Top_reason_for_each_county
```

```
## # A tibble: 159 × 3
## # Groups:   County [159]
##    County   Status_Reason                               Total_Number
##    <chr>    <chr>                                              <int>
##  1 APPLING  voter requested                                      258
##  2 ATKINSON mailed ballot surrendered to vote in-person          126
##  3 BACON    mailed ballot surrendered to vote in-person          184
##  4 BAKER    ballot was undelivered                                30
##  5 BALDWIN  voter requested                                     1062
##  6 BANKS    voter requested                                      199
##  7 BARROW   vip                                                 1788
##  8 BARTOW   mailed ballot surrendered to vote in-person         1049
##  9 BEN HILL voter requested                                      272
## 10 BERRIEN  mailed ballot surrendered to vote in-person          430
## # … with 149 more rows
```
…
<img src="presidential_election_files/figure-html/unnamed-chunk-25-1.png" width="672" style="display: block; margin: auto;" />

Then, we want to find ballot non-accepted rate for each county in Georgia and make observations about which counties have the highest non-accepted rates. We calculate non-accepted rate by dividing the number of R,C,S (which ballot status is rejected, cancelled and spoiled ballots) by the total number of ballots with status R,C,S,A (A means accepted) for each county. We find that counties with the highest ballot non-accepting are Baldwin, Greene and Dougherty, which are all above 10%! 

We also compute the total absentee ballot number by adding all non-accepted ballot_status ballots (R,C,S,A) for each county.


```r
(Not_accepted_percent_state <- statewide_small %>% group_by(County) %>% summarise(Not_accepted_percent_state=100*sum(Ballot_Status =="R"|Ballot_Status =="C"|Ballot_Status =="S")/sum(Ballot_Status =="R"|Ballot_Status =="C"|Ballot_Status =="S"|Ballot_Status =="A" ), Total_absentee_number=sum(Ballot_Status =="R"|Ballot_Status =="C"|Ballot_Status =="S"|Ballot_Status =="A" ))) %>% arrange(desc(Not_accepted_percent_state))
```

```
## # A tibble: 159 × 3
##    County    Not_accepted_percent_state Total_absentee_number
##    <chr>                          <dbl>                 <int>
##  1 BALDWIN                        11.1                  16692
##  2 GREENE                         11.0                  11068
##  3 DOUGHERTY                      10.9                  26300
##  4 SUMTER                         10.4                  10603
##  5 DEKALB                         10.1                 359975
##  6 FULTON                          9.93                507773
##  7 TALBOT                          9.76                  2756
##  8 GRADY                           9.74                  8902
##  9 HANCOCK                         9.73                  3597
## 10 JENKINS                         9.64                  2843
## # … with 149 more rows
```
…
